2017-01-13 16:40:56.615 : Date:2017/01/13 16:40:56
2017-01-13 16:40:56.615 :Pinging 192.168.251.48 with 32 bytes of data: Date:2017/01/13 16:40:56
2017-01-13 16:41:00.553 :Request timed out. Date:2017/01/13 16:41:00
2017-01-13 16:41:05.572 :Request timed out. Date:2017/01/13 16:41:05
2017-01-13 16:41:10.594 :Request timed out. Date:2017/01/13 16:41:10
2017-01-13 16:41:15.539 :Request timed out. Date:2017/01/13 16:41:15
2017-01-13 16:41:20.533 :Request timed out. Date:2017/01/13 16:41:20
2017-01-13 16:41:25.513 :Request timed out. Date:2017/01/13 16:41:25
2017-01-13 16:41:30.548 :Request timed out. Date:2017/01/13 16:41:30
2017-01-13 16:41:35.535 :Request timed out. Date:2017/01/13 16:41:35
2017-01-13 16:41:40.522 :Request timed out. Date:2017/01/13 16:41:40
2017-01-13 16:41:45.524 :Request timed out. Date:2017/01/13 16:41:45
2017-01-13 16:41:50.513 :Request timed out. Date:2017/01/13 16:41:50
2017-01-13 16:41:55.556 :Request timed out. Date:2017/01/13 16:41:55
2017-01-13 16:42:00.552 :Request timed out. Date:2017/01/13 16:42:00
