2017-01-13 16:40:56.606 : Date:2017/01/13 16:40:56
2017-01-13 16:40:56.606 :Pinging 192.168.251.28 with 32 bytes of data: Date:2017/01/13 16:40:56
2017-01-13 16:41:00.550 :Request timed out. Date:2017/01/13 16:41:00
2017-01-13 16:41:05.562 :Request timed out. Date:2017/01/13 16:41:05
2017-01-13 16:41:10.589 :Request timed out. Date:2017/01/13 16:41:10
2017-01-13 16:41:15.540 :Request timed out. Date:2017/01/13 16:41:15
2017-01-13 16:41:20.529 :Request timed out. Date:2017/01/13 16:41:20
2017-01-13 16:41:25.495 :Request timed out. Date:2017/01/13 16:41:25
2017-01-13 16:41:30.511 :Request timed out. Date:2017/01/13 16:41:30
2017-01-13 16:41:35.510 :Request timed out. Date:2017/01/13 16:41:35
2017-01-13 16:41:40.520 :Request timed out. Date:2017/01/13 16:41:40
2017-01-13 16:41:45.531 :Request timed out. Date:2017/01/13 16:41:45
2017-01-13 16:41:50.530 :Request timed out. Date:2017/01/13 16:41:50
2017-01-13 16:41:55.531 :Request timed out. Date:2017/01/13 16:41:55
2017-01-13 16:42:00.525 :Request timed out. Date:2017/01/13 16:42:00
